<svg xmlns:dc="http://purl.org/dc/elements/1.1/" xmlns:cc="http://creativecommons.org/ns#"
  xmlns:rdf="http://www.w3.org/1999/02/22-rdf-syntax-ns#" xmlns:svg="http://www.w3.org/2000/svg"
  xmlns="http://www.w3.org/2000/svg" version="1.1" id="svg2" xml:space="preserve" width="25px" height="25px"
  viewBox="0 0 214.89062 209.9832">
  <path
    d="m 145.90472,161.18721 c 0.291,-0.374 0.149,-0.813 0.115,-1.077 -0.13,-1 0.117,-1.853 0.723,-2.68 1.624,-2.221 3.576,-4.139 5.57,-5.996 2.498,-2.326 5.097,-4.55 7.742,-6.707 2.751,-2.243 5.535,-4.462 8.446,-6.489 2.46,-1.713 5.124,-3.131 7.692,-4.689 1.167,-0.708 2.307,-1.46 3.484,-2.148 0.942,-0.551 1.889,-1.11 2.889,-1.538 5.145,-2.198 10.197,-4.619 15.483,-6.475 1.409,-0.494 2.852,-0.916 4.308,-1.245 1.606,-0.363 3.169,-0.795 4.67,-1.487 0.735,-0.339 1.56,-0.48 2.331,-0.746 1.301,-0.451 2.464,-1.008 3.181,-2.36 0.348,-0.656 1.229,-1.024 1.852,-1.541 0.582,-0.484 0.685,-1.685 0.154,-2.238 -0.756,-0.786 -1.512,-1.59 -2.371,-2.252 -0.384,-0.295 -1.039,-0.416 -1.538,-0.354 -3.801,0.469 -7.513,1.394 -11.197,2.418 -6.721,1.87 -13.209,4.329 -19.528,7.33 -5.454,2.59 -10.475,5.886 -15.693,8.859 -0.236,0.135 -0.457,0.301 -0.675,0.464 -1.856,1.389 -3.72,2.768 -5.561,4.177 -1.734,1.325 -3.476,2.643 -5.155,4.036 -1.996,1.656 -4.033,3.285 -5.861,5.116 -2.406,2.41 -4.769,4.87 -6.686,7.726 -0.751,1.12 -1.771,2.076 -2.751,3.022 -1.087,1.048 -2.137,2.115 -2.955,3.39 -3.097,4.826 -6.327,9.572 -9.245,14.503 -2.851,4.817 -5.679,9.66 -8.15,14.693 -0.781,1.592 -1.503,3.214 -2.284,4.807 -0.359,0.731 -0.628,1.672 -1.232,2.081 -1.224,0.826 -1.476,1.777 -1.284,3.149 0.128,0.916 -0.013,1.915 -0.244,2.824 -0.376,1.483 -0.446,2.971 -0.389,4.475 0.052,1.395 0.521,2.695 1.261,3.851 0.876,1.372 2.201,2.001 3.846,1.883 1.325,-0.095 2.677,-1.301 2.81,-2.582 0.085,-0.811 0.078,-1.637 0.051,-2.454 -0.056,-1.663 0.263,-3.241 0.787,-4.822 0.819,-2.478 1.945,-4.814 3.112,-7.129 2.582,-5.126 5.412,-10.109 8.612,-14.885 2.127,-3.174 4.107,-6.447 6.178,-9.658 0.666,-1.031 1.401,-2.018 2.137,-3.002 0.24,-0.321 0.56,-0.786 0.876,-0.814 2.185,-0.193 3.252,-1.846 4.489,-3.436"
    style="fill:#1d1d1b;fill-opacity:1;fill-rule:nonzero;stroke:none" id="path26" />
  <path
    d="m 161.09022,81.654413 c 0.924,0.126 1.593,0.273 2.267,0.296 0.845,0.028 1.58,0.252 2.296,0.723 2.966,1.951 5.958,3.861 8.946,5.778 0.574,0.368 1.163,0.716 1.76,1.045 5.383,2.967 10.644,6.16 16.161,8.883 3.677,1.814997 7.44,3.409997 11.458,4.355997 1.623,0.383 3.245,0.426 4.884,0.376 1.262,-0.038 2.424,-0.488 3.479,-1.121 1.388,-0.834 2.095,-2.109997 2.017,-3.770997 -0.072,-1.536 -1.312,-2.905 -2.817,-3.04 -0.678,-0.06 -1.366,-0.061 -2.046,-0.022 -1.95,0.113 -3.793,-0.296 -5.612,-0.969 -3.987,-1.473 -7.716,-3.479 -11.444,-5.485 -4.333,-2.33 -8.462,-5.002 -12.589,-7.673 -3.437,-2.224 -6.822,-4.526 -10.255,-6.758 -1.049,-0.681 -1.969,-1.401 -2.532,-2.585 -0.347,-0.727 -1.023,-1.309 -1.903,-1.421 -0.716,-0.09 -1.284,-0.427 -1.815,-0.867 -2.106,-1.737 -4.245,-3.421 -6.142,-5.413 -4.244,-4.456 -8.263,-9.087 -11.939,-14.029 -2.778,-3.735 -5.212,-7.675 -7.565,-11.676 -0.552,-0.941 -1.156,-1.854 -1.704,-2.798 -0.615,-1.06 -1.291,-2.1 -1.771,-3.222 -2.2,-5.142 -4.616,-10.196 -6.478,-15.478 -0.542,-1.536 -1.017,-3.112 -1.329,-4.708 -0.265,-1.359 -0.744,-2.6170002 -1.23,-3.8940002 -0.386,-1.015 -0.65,-2.077 -1.027,-3.096 -0.383,-1.035 -0.901,-2.045 -1.935,-2.534 -0.823,-0.388 -1.153,-1.115 -1.639,-1.75700001 -0.68,-0.895 -1.724,-1.043 -2.48,-0.397 -0.105,0.089 -0.228,0.156 -0.323,0.253 -2.581,2.64400001 -2.529,2.31000001 -1.913,5.73300001 1.017,5.6520002 2.525,11.1830002 4.43,16.6030002 2.682,7.63 6.093,14.909 10.32,21.809 2.425,3.958 4.667,8.038 7.834,11.489 2.6,4.209 5.934,7.839 9.294,11.413 2.419,2.573 4.996,5.033 8.018,6.96 1.274,0.812 2.269,1.911 2.974,3.309 0.61,1.211 1.454,2.304 2.35,3.688"
    style="fill:#1d1d1b;fill-opacity:1;fill-rule:nonzero;stroke:none" id="path30" />
  <path
    d="m 15.335483,105.12959 c 0.911,0.942 2.029,1.043 3.021,1.405 3.464,1.263 6.979,2.397 10.401,3.762 5.592,2.229 10.947,4.947 16.069,8.128 3.711,2.305 7.582,4.364 10.847,7.327 3.58,2.063 6.42,5.075 9.667,7.566 1.187,0.911 2.329,1.937 3.281,3.084 2,2.414 4.426,4.462 6.048,7.204 0.699,1.18 1.725,2.109 2.976,2.753 0.605,0.313 1.168,0.707 1.77,1.026 1.705,0.904 2.759,2.179 2.581,4.239 -0.061,0.707 0.301,1.29 0.686,1.878 1.945,2.971 3.857,5.962 5.776,8.949 0.295,0.46 0.588,0.923 0.852,1.401 2.711,4.901 5.403,9.812 8.128004,14.706 1.333,2.394 2.37,4.924 3.428003,7.44 1.062,2.528 1.756,5.169 2.149,7.891 0.261,1.808 0.028,3.547 -0.613,5.233 -0.509,1.338 -1.426,2.285 -2.794003,2.818 -2.068,0.804 -4.304004,-0.572 -4.450004,-2.788 -0.018,-0.272 -0.054,-0.548 -0.025,-0.818 0.368,-3.404 -0.788,-6.475 -2.143,-9.477 -2.138,-4.736 -4.533,-9.347 -7.305,-13.744 -3.712,-5.886 -7.28,-11.869 -11.35,-17.525 -0.159,-0.221 -0.303,-0.457 -0.426,-0.699 -0.49,-0.963 -0.841,-2.03 -1.486,-2.871 -0.652,-0.853 -1.632,-1.447 -2.393,-2.228 -0.761,-0.78 -1.453,-1.634 -2.133,-2.488 -2.051,-2.574 -4.415,-4.833 -6.84,-7.048 -2.524,-2.305 -5.091,-4.558 -7.783,-6.66 -2.367,-1.85 -4.723,-3.722 -7.196,-5.42 -2.135,-1.466 -4.432,-2.694 -6.65,-4.04 -1.517,-0.921 -3.009,-1.884 -4.535,-2.789 -0.82,-0.486 -1.667,-0.944 -2.541,-1.322 -5.258,-2.278 -10.463,-4.685 -15.857,-6.632 -1.534,-0.554 -3.113,-1.043 -4.713,-1.336 -1.367,-0.249 -2.6170005,-0.738 -3.8900005,-1.231 -0.757,-0.292 -1.539,-0.527 -2.3249998,-0.732 -1.091,-0.285 -2.16,-0.757 -2.746,-1.667 -0.612,-0.95 -1.355,-1.634 -2.26099998,-2.246 -0.622,-0.42 -0.742,-1.673 -0.281,-2.227 0.435,-0.522 0.92699998,-0.995 1.37599998,-1.506 0.886,-1.005 1.939,-1.46 3.296,-1.137 0.661,0.156 1.3469998,0.212 2.0229998,0.3 0.331,0.042 0.721,-0.537 0.58,-0.883 -0.206,-0.506 -0.512,-0.979 -0.661,-1.498 -0.617,-2.158997 0.832,-4.249999 3.018,-4.400999 0.2730005,-0.019 0.5510005,-0.051 0.8190005,-0.017 3.41,0.424 6.495,-0.714 9.48,-2.104 2.971,-1.382 5.875,-2.912 8.772,-4.446998 4.349,-2.305 8.455,-5.017 12.586,-7.682 3.785,-2.442 7.542,-4.926 11.303,-7.405 1.484,-0.977 2.929,-1.995 4.187,-3.278 0.857,-0.875 1.842,-1.627 2.797,-2.402 2.445,-1.987 4.667,-4.2 6.728,-6.58 1.787,-2.065 3.638,-4.078 5.357,-6.199 2.233,-2.757 4.465,-5.527 6.505,-8.426 1.647,-2.339 3.007,-4.881 4.5,-7.329 0.853,-1.398 1.731,-2.781 2.57,-4.186 0.419,-0.702 0.822,-1.419 1.153,-2.164 2.382,-5.363 4.804,-10.711 6.827,-16.223 0.516,-1.405 0.846,-2.881 1.213,-4.338 0.399,-1.591 0.827,-3.165 1.522,-4.6650002 0.339004,-0.73 0.497004,-1.547 0.709004,-2.3329997 0.257,-0.952 0.691,-1.912 1.485,-2.386 1.102,-0.658 1.769003,-1.627 2.535003,-2.559 0.401,-0.489 1.433,-0.567 1.881,-0.167 0.711,0.634 1.387,1.308 2.067,1.976 0.741,0.727 0.963,1.586 0.764,2.618 -1.217,6.3129999 -2.762,12.5399999 -4.928,18.5989999 -2.535003,7.094 -5.661007,13.917 -9.571007,20.363 -2.547,4.201 -4.864,8.562 -8.224,12.218 -2.014,3.618 -4.983,6.502 -7.579,9.658 -2.776,3.375 -6.093,6.252 -9.674,8.786 -1.358,0.961 -2.576,2.018 -3.277,3.574 -0.166,0.371 -0.391,0.72 -0.617,1.06 -1.734,2.603 -1.568,2.779 -4.462,2.901 -0.516,0.022 -1.077,0.236 -1.522,0.516 -2.89,1.815 -5.753,3.675 -8.629,5.513 -0.92,0.588 -1.832,1.193 -2.786,1.722 -4.898,2.717998 -9.793,5.439998 -14.722,8.101 -1.557,0.839997 -3.214,1.497997 -4.828,2.232997 -1.005,0.457 -1.955,0.958 -2.555,1.961 -0.403,0.675 -1.071,0.802 -1.785,0.575 -1.853,-0.588 -3.462,0.094 -5.177,0.819"
    style="fill:#1d1d1b;fill-opacity:1;fill-rule:nonzero;stroke:none" id="path22" />
  <defs id="defs6" />
</svg>